"Earned Mark Analysis ",,,"WDS:511",,"Fall 2019",,,,#2019-09-23#,,
"STUDENT NAME",,"Simon Wong",,,,,,,,,
"Predicted Mark",,,78.4175,"B/B+/A-",,"Planned GPA",,79.4415405,"B/B+/A-",,
"Tracked  (To-date) GPA",,,79.4415405,"B/B+/A-",,"Desired GPA",,83.994027,"B+/A-/A",,
,,,,,,,,,,,
,,,,,,,,,,,
"PLACE COMMENTS HERE",,,,,,,,,,,
"I am a 3.7 student and am look for a perfect 4.0 semester to finish it off. So with any luck I will ace this class too.",,,,,,,,,,,
,,,,,,,,,,,
,,,,,,,,,,,
""
""
"Initial EMA",,,,"DUE",#2019-10-02#,,,,,,
"WDS:511",,,,,,,,,,,
,,,,,,,,"C:\Users\simon\OneDrive - University of Calgary\Courses\_ENCM511_Fall2019\_CourseContent","\Initial_EMA.csv",,
"PLACE COMMENTS HERE",,,,,,,,,,,
"Initial EMA, we'll see where this goes.",,,,,,,,,,,
,,,,,,,,,,,
,,,,,,,,,,,
,,,,,,,,,,,
,,,,,,,,,,,
,,,,,,,,,,,
""
""
"Course Components","Approximate Completion Date","Course Percentage","Bonus Percentage","2017 Rough class average","Predicted Mark","Course Acculumative","Last year's Component Grade","Last'Year's Accumulative Grade","Predicted Component Grade","Predicted Accumulative Grade","Predicted GPA","Planned mark","Planned Component Grade","Planned Accumulative Grade","Planned GPA","Tracked Mark","Tracket Component Grade","Trackled Accumulative Grade","Tracked  (To-date) GPA","Desired Mark","Desired Component Grade","Desired Accumulative Grade","Desired GPA","Show Question Marks"
"PreLab 0 Report/Demo",#2019-09-20#,1.5,0,80,96,1.5,1.2,1.2,1.44,1.44,"A+",100,1.5,1.5,"A+","????",1.5,1.5,"A+",100,1.5,1.5,"A+","????"
"Initial EMA Submit",#2019-10-02#,2,0,75,67.5,3.5,1.5,2.7,1.35,2.79,"C-/C/C+",100,2,3.5,"A+",100,2,3.5,"A+",100,2,3.5,"A+","????"
"Lab 0 Demo",#2019-10-02#,1.6,0,80,96,5.1,1.28,3.98,1.536,4.326,"A+",100,1.6,5.1,"A+","????",1.6,5.1,"A+",100,1.6,5.1,"A+","????"
"Quiz 1",#2019-10-14#,4,0,65,74.75,9.1,2.6,6.58,2.99,7.316,"C+/B-/B","????",2.99,8.09,"C+/B-/B","????",2.99,8.09,"C+/B-/B",80,3.2,8.3,"B/B+/A-","????"
"In Quiz 1 prediction",#2019-10-14#,0,.5,.001,.0009,9.1,0,6.58,0,7.316,0,50,.25,8.34,"F/D/D+","????",.25,8.34,"F/D/D+",50,.25,8.55,"F/D/D+","????"
"Post Quiz 1 EMA Submit",#2019-10-15#,0,.5,.001,.0009,9.1,0,6.58,0,7.316,0,"????",.0000045,8.3400045,0,"????",.0000045,8.3400045,0,100,.5,9.05,"A+","????"
"Lab 1 Demo",#2019-10-16#,4,0,80,96,13.1,3.2,9.78,3.84,11.156,"A+","????",3.84,12.1800045,"A+","????",3.84,12.1800045,"A+",100,4,13.05,"A+","????"
"Assignment 1",#2019-10-20#,3,0,80,72,16.1,2.4,12.18,2.16,13.316,"C+/B-/B","????",2.16,14.3400045,"C+/B-/B","????",2.16,14.3400045,"C+/B-/B",80,2.4,15.45,"B/B+/A-","????"
"Assign 1 Early Bonus",#2019-10-20#,0,.5,.001,.0009,16.1,0,12.18,0,13.316,0,"????",.0000045,14.340009,0,"????",.0000045,14.340009,0,100,.5,15.95,"A+","????"
"Assignment 2",#2019-10-29#,4,0,75,67.5,20.1,3,15.18,2.7,16.016,"C-/C/C+","????",2.7,17.040009,"C-/C/C+","????",2.7,17.040009,"C-/C/C+",100,4,19.95,"A+","????"
"Lab 2 Demo",#2019-10-30#,4,0,80,96,24.1,3.2,18.38,3.84,19.856,"A+","????",3.84,20.880009,"A+","????",3.84,20.880009,"A+",100,4,23.95,"A+","????"
"Lab  2 Report",#2019-10-30#,2.25,0,80,96,26.35,1.8,20.18,2.16,22.016,"A+","????",2.16,23.040009,"A+","????",2.16,23.040009,"A+",100,2.25,26.2,"A+","????"
"Assign 2 Early Bonus",#2019-10-30#,0,.5,.001,.0009,26.35,0,20.18,0,22.016,0,"????",.0000045,23.0400135,0,"????",.0000045,23.0400135,0,100,.5,26.7,"A+","????"
"Midterm",#2019-10-31#,17,0,65,74.75,43.35,11.05,31.23,12.7075,34.7235,"C+/B-/B","????",12.7075,35.7475135,"C+/B-/B","????",12.7075,35.7475135,"C+/B-/B",80,13.6,40.3,"B/B+/A-","????"
"In Midterm prediction",#2019-10-31#,0,.5,.001,.0009,43.35,0,31.23,0,34.7235,0,"????",.0000045,35.747518,0,"????",.0000045,35.747518,0,"????",.0000045,40.3000045,0,"????"
"Post Midterm EMA Submit",#2019-11-02#,0,.5,.001,.0009,43.35,0,31.23,0,34.7235,0,"????",.0000045,35.7475225,0,"????",.0000045,35.7475225,0,"????",.0000045,40.300009,0,"????"
"Post Quiz 3 EMASubmit",#2019-11-20#,0,.5,.001,.0009,43.35,0,31.23,0,34.7235,0,"????",.0000045,35.747527,0,"????",.0000045,35.747527,0,"????",.0000045,40.3000135,0,"????"
"Lab 3 Demo",#2019-11-20#,2.4,0,80,96,45.75,1.92,33.15,2.304,37.0275,"A+","????",2.304,38.051527,"A+","????",2.304,38.051527,"A+","????",2.304,42.6040135,"A+","????"
"Quiz 3",#2019-11-22#,4,0,65,74.75,49.75,2.6,35.75,2.99,40.0175,"C+/B-/B","????",2.99,41.041527,"C+/B-/B","????",2.99,41.041527,"C+/B-/B","????",2.99,45.5940135,"C+/B-/B","????"
"In Quiz 3 prediction",#2019-11-22#,0,.5,.001,.0009,49.75,,35.75,0,40.0175,0,"????",.0000045,41.0415315,0,"????",.0000045,41.0415315,0,"????",.0000045,45.594018,0,"????"
"Lab 4 Demo",#2019-12-03#,4,0,70,84,53.75,2.8,38.55,3.36,43.3775,"B+/A-/A","????",3.36,44.4015315,"B+/A-/A","????",3.36,44.4015315,"B+/A-/A","????",3.36,48.954018,"B+/A-/A","????"
"Lab 3/4 Report",#2019-12-05#,2.25,0,60,72,56,1.35,39.9,1.62,44.9975,"C+/B-/B","????",1.62,46.0215315,"C+/B-/B","????",1.62,46.0215315,"C+/B-/B","????",1.62,50.574018,"C+/B-/B","????"
"Pre Final EMA Submit",#2019-12-10#,2,0,60,54,58,1.2,41.1,1.08,46.0775,"D/D+/C-","????",1.08,47.1015315,"D/D+/C-","????",1.08,47.1015315,"D/D+/C-","????",1.08,51.654018,"D/D+/C-","????"
"Final Exam",#2019-12-15#,42,0,70,77,100,29.4,70.5,32.34,78.4175,"B-/B/B+","????",32.34,79.4415315,"B-/B/B+","????",32.34,79.4415315,"B-/B/B+","????",32.34,83.994018,"B-/B/B+","????"
"In Final Exam prediction",#2019-12-15#,0,1,.001,.0009,100,0,70.5,0,78.4175,0,"????",.000009,79.4415405,0,,.000009,79.4415405,0,"????",.000009,83.994027,0,"????"
,,,,,,100,0,70.5,0,78.4175,"","",0,79.4415405,"",,0,79.4415405,"","",0,83.994027,"",""
,,,,,,100,0,70.5,0,78.4175,"","",0,79.4415405,"",,0,79.4415405,"","",0,83.994027,"",""
,,,,,,100,0,70.5,0,78.4175,"","",0,79.4415405,"",,0,79.4415405,"","",0,83.994027,"",""
,,,,,,100,0,70.5,0,78.4175,"","",0,79.4415405,"",,0,79.4415405,"","",0,83.994027,"",""
,,,,,,100,0,70.5,0,78.4175,"","",0,79.4415405,"",,0,79.4415405,"","",0,83.994027,"",""
,,,,,,100,0,70.5,0,78.4175,"","",0,79.4415405,"",,0,79.4415405,"","",0,83.994027,"",""
,,,,,,100,0,70.5,0,78.4175,"","",0,79.4415405,"",,0,79.4415405,"","",0,83.994027,"",""
,,,,,,100,0,70.5,0,78.4175,"","",0,79.4415405,"",,0,79.4415405,"","",0,83.994027,"",""
,,,,,,100,0,70.5,0,78.4175,"","",0,79.4415405,"",,0,79.4415405,"","",0,83.994027,"",""
,,,,,,100,0,70.5,0,78.4175,"","",0,79.4415405,"",,0,79.4415405,"","",0,83.994027,"",""
,,,,,,100,0,70.5,0,78.4175,"","",0,79.4415405,"",,0,79.4415405,"","",0,83.994027,"",""
,,,,,,100,0,70.5,0,78.4175,"","",0,79.4415405,"",,0,79.4415405,"","",0,83.994027,"",""
,,,,,,100,0,70.5,0,78.4175,"","",0,79.4415405,"",,0,79.4415405,"","",0,83.994027,"",""
,,,,,,100,0,70.5,0,78.4175,"","",0,79.4415405,"",,0,79.4415405,"","",0,83.994027,"",""
,,,,,,100,0,70.5,0,78.4175,"","",0,79.4415405,"",,0,79.4415405,"","",0,83.994027,"",""
,,,,,,100,0,70.5,0,78.4175,"","",0,79.4415405,"",,0,79.4415405,"","",0,83.994027,"",""
,,,,,,100,0,70.5,0,78.4175,"","",0,79.4415405,"",,0,79.4415405,"","",0,83.994027,"",""
,,,,,,100,0,70.5,0,78.4175,"","",0,79.4415405,"",,0,79.4415405,"","",0,83.994027,"",""
,,,,,,100,0,70.5,0,78.4175,"","",0,79.4415405,"",,0,79.4415405,"","",0,83.994027,"",""
,,,,,,100,0,70.5,0,78.4175,"","",0,79.4415405,"",,0,79.4415405,"","",0,83.994027,"",""
,,,,,,100,0,70.5,0,78.4175,"","",0,79.4415405,"",,0,79.4415405,"","",0,83.994027,"",""
,,,,,,100,0,70.5,0,78.4175,"","",0,79.4415405,"",,0,79.4415405,"","",0,83.994027,"",""
,,,,,,100,0,70.5,0,78.4175,"","",0,79.4415405,"",,0,79.4415405,"","",0,83.994027,"",""
,,,,,,100,0,70.5,0,78.4175,"","",0,79.4415405,"",,0,79.4415405,"","",0,83.994027,"",""
,,,,,,100,0,70.5,0,78.4175,"","",0,79.4415405,"",,0,79.4415405,"","",0,83.994027,"",""
,,,,,,,"Predicted Mark",,,78.4175,,"Planned Mark",,79.4415405,,"Tracked Mark",,79.4415405,,"Desired Mark",,83.994027,,
,,,,,,,"Predicted Grade",,,"B/B+/A-",,"Planned Grade",,"B/B+/A-",,"Tracked Mark",,"B/B+/A-",,"Desired Mark",,"B+/A-/A",,
""
""
